module gin-web

go 1.20

require (
	bitbucket.org/playsure-go/generator v0.1.0
	bitbucket.org/playsure-go/zero v0.0.6
	github.com/gin-contrib/cors v1.5.0
	github.com/gin-contrib/sessions v0.0.5
	github.com/gin-gonic/gin v1.9.1
	github.com/lestrrat-go/file-rotatelogs v2.4.0+incompatible
	github.com/rifflock/lfshook v0.0.0-20180920164130-b9218ef580f5
	github.com/sirupsen/logrus v1.9.3
	github.com/spf13/viper v1.16.0
	github.com/utrack/gin-csrf v0.0.0-20190424104817-40fb8d2c8fca
	gorm.io/driver/mysql v1.5.1
	gorm.io/gorm v1.25.3
)

require (
	bitbucket.org/playsure-go/convert v0.0.4 // indirect
	bitbucket.org/playsure-go/hash v0.1.0 // indirect
	github.com/bytedance/sonic v1.10.1 // indirect
	github.com/chenzhuoyu/base64x v0.0.0-20230717121745-296ad89f973d // indirect
	github.com/chenzhuoyu/iasm v0.9.0 // indirect
	github.com/dchest/uniuri v1.2.0 // indirect
	github.com/fsnotify/fsnotify v1.6.0 // indirect
	github.com/gabriel-vasile/mimetype v1.4.2 // indirect
	github.com/gin-contrib/sse v0.1.0 // indirect
	github.com/go-playground/locales v0.14.1 // indirect
	github.com/go-playground/universal-translator v0.18.1 // indirect
	github.com/go-playground/validator/v10 v10.15.5 // indirect
	github.com/go-sql-driver/mysql v1.7.1 // indirect
	github.com/goccy/go-json v0.10.2 // indirect
	github.com/google/uuid v1.3.1 // indirect
	github.com/gorilla/context v1.1.1 // indirect
	github.com/gorilla/securecookie v1.1.1 // indirect
	github.com/gorilla/sessions v1.2.1 // indirect
	github.com/hashicorp/hcl v1.0.0 // indirect
	github.com/jinzhu/inflection v1.0.0 // indirect
	github.com/jinzhu/now v1.1.5 // indirect
	github.com/jonboulle/clockwork v0.4.0 // indirect
	github.com/json-iterator/go v1.1.12 // indirect
	github.com/klauspost/cpuid/v2 v2.2.5 // indirect
	github.com/leodido/go-urn v1.2.4 // indirect
	github.com/lestrrat-go/strftime v1.0.6 // indirect
	github.com/magiconair/properties v1.8.7 // indirect
	github.com/mattn/go-isatty v0.0.19 // indirect
	github.com/mitchellh/mapstructure v1.5.0 // indirect
	github.com/modern-go/concurrent v0.0.0-20180306012644-bacd9c7ef1dd // indirect
	github.com/modern-go/reflect2 v1.0.2 // indirect
	github.com/pelletier/go-toml/v2 v2.1.0 // indirect
	github.com/pkg/errors v0.9.1 // indirect
	github.com/spf13/afero v1.9.5 // indirect
	github.com/spf13/cast v1.5.1 // indirect
	github.com/spf13/jwalterweatherman v1.1.0 // indirect
	github.com/spf13/pflag v1.0.5 // indirect
	github.com/subosito/gotenv v1.6.0 // indirect
	github.com/twitchyliquid64/golang-asm v0.15.1 // indirect
	github.com/ugorji/go/codec v1.2.11 // indirect
	golang.org/x/arch v0.5.0 // indirect
	golang.org/x/crypto v0.14.0 // indirect
	golang.org/x/net v0.16.0 // indirect
	golang.org/x/sys v0.13.0 // indirect
	golang.org/x/text v0.13.0 // indirect
	google.golang.org/protobuf v1.31.0 // indirect
	gopkg.in/ini.v1 v1.67.0 // indirect
	gopkg.in/yaml.v3 v3.0.1 // indirect
)
